{
  "runs": [
    {
      "id": 1,
      "location_data": {
        "latitude": "48.8567",
        "longitude": "2.3508",
        "location": "loc1"
      },
      "weather": null,
      "distance": 1500,
      "time": 1300,
      "speed": {
        "value": 1.154,
        "unit": "m/s"
      },
      "date": "2021-01-15"
    }
  ],
  "meta": {
    "current_page": 1,
    "next_page": null,
    "per_page": 10,
    "prev_page": null,
    "total_pages": 1,
    "total_count": 1
  }
}
